Visualisation with ggplot2
…
### Tidy the previous data

```r
library(dplyr)
```

```r
(fertilityTidy <- fertilityData %>%
   tidyr::pivot_longer(cols = -Country, names_to = "Year",
                       values_to = "Fertility") %>%
   mutate(Year = as.integer(Year)))
```

```
## # A tibble: 72 x 3
##    Country      Year Fertility
##    <fct>       <int>     <dbl>
##  1 Afghanistan  1800       7  
##  2 Afghanistan  1801       7  
##  3 Afghanistan  1802       7  
##  4 Afghanistan  1803       7  
##  5 Afghanistan  1804       7  
##  6 Afghanistan  1805       7  
##  7 Albania      1800       4.6
##  8 Albania      1801       4.6
##  9 Albania      1802       4.6
## 10 Albania      1803       4.6
## # ... with 62 more rows
```
…
# Layers 

---

## Iris: base dataset of R

### about plants

```r
as_tibble(iris)   ## print is better
```

```
## # A tibble: 150 x 5
##    Sepal.Length Sepal.Width Petal.Length Petal.Width Species
##           <dbl>       <dbl>        <dbl>       <dbl> <fct>  
##  1          5.1         3.5          1.4         0.2 setosa 
##  2          4.9         3            1.4         0.2 setosa 
##  3          4.7         3.2          1.3         0.2 setosa 
##  4          4.6         3.1          1.5         0.2 setosa 
##  5          5           3.6          1.4         0.2 setosa 
##  6          5.4         3.9          1.7         0.4 setosa 
##  7          4.6         3.4          1.4         0.3 setosa 
##  8          5           3.4          1.5         0.2 setosa 
##  9          4.4         2.9          1.4         0.2 setosa 
## 10          4.9         3.1          1.5         0.1 setosa 
## # ... with 140 more rows
```
…
class: center, middle, inverse

# Your turn

---

## Use this data..

```r
(df <- gapminder::gapminder %>%
   filter(year == 1992))
```

```
## # A tibble: 142 x 6
##    country     continent  year lifeExp       pop gdpPercap
##    <fct>       <fct>     <int>   <dbl>     <int>     <dbl>
##  1 Afghanistan Asia       1992    41.7  16317921      649.
##  2 Albania     Europe     1992    71.6   3326498     2497.
##  3 Algeria     Africa     1992    67.7  26298373     5023.
##  4 Angola      Africa     1992    40.6   8735988     2628.
##  5 Argentina   Americas   1992    71.9  33958947     9308.
##  6 Australia   Oceania    1992    77.6  17481977    23425.
##  7 Austria     Europe     1992    76.0   7914969    27042.
##  8 Bahrain     Asia       1992    72.6    529491    19036.
##  9 Bangladesh  Asia       1992    56.0 113704579      838.
## 10 Belgium     Europe     1992    76.5  10045622    25576.
## # ... with 132 more rows
```
…
